Titanic-logic.R
…
Veo los parametros B de cada modelo

betas <- models_titanic %>% 
  mutate(tidy = map(mod,tidy)) %>%  
  unnest(tidy, .drop = TRUE) %>% 
  mutate(estimate=round(estimate,5),
         p.value=round(p.value,4))
betas

## # A tibble: 40 x 7
##    models      expression      term    estimate std.error statistic p.value
##    <chr>       <chr>           <chr>      <dbl>     <dbl>     <dbl>   <dbl>
##  1 edad        Survived ~ Age  (Inter -0.104     0.165      -0.635  0.525 
##  2 edad        Survived ~ Age  Age     -0.0127    0.00518    -2.45   0.0144
##  3 clase       Survived ~ Pcl (Inter  1.45      0.207       6.97   0     
##  4 clase       Survived ~ Pcl Pclass  -0.850     0.0871     -9.76   0     
##  5 edad_tarifa Survived ~ Age (Inter -0.393     0.174      -2.26   0.0236
##  6 edad_tarifa Survived ~ Age Age     -0.0203    0.00551    -3.69   0.0002
##  7 edad_tarifa Survived ~ Age Fare     0.0167    0.00235     7.10   0     
##  8 edad_tarif Survived ~ Age (Inter  0.821     0.214       3.83   0.0001
##  9 edad_tarif Survived ~ Age Age     -0.00716   0.00628    -1.14   0.255 
## 10 edad_tarif Survived ~ Age Fare     0.0116    0.00235     4.96   0     
## #  with 30 more rows
…
models_titanic <- models_titanic %>% 
  mutate(pred= map(mod,augment, type.predict = "response"))

models_titanic$pred$edad_tarifa_genero

## # A tibble: 891 x 11
##    Survived   Age  Fare Sex   .fitted .se.fit .resid    .hat .sigma .cooksd
##       <int> <dbl> <dbl> <fct>   <dbl>   <dbl>  <dbl>   <dbl>  <dbl>   <dbl>
##  1        0    22  7.25 male    0.162  0.0173 -0.595 0.00220  0.998 1.07e-4
##  2        1    38 71.3  fema   0.799  0.0275  0.670 0.00470  0.998 2.99e-4
##  3        1    26  7.92 fema   0.674  0.0310  0.888 0.00439  0.998 5.35e-4
##  4        1    35 53.1  fema   0.767  0.0265  0.729 0.00392  0.998 3.01e-4
##  5        0    35  8.05 male    0.151  0.0160 -0.573 0.00200  0.998 8.93e-5
##  6        0    29  8.46 male    0.157  0.0157 -0.585 0.00186  0.998 8.73e-5
##  7        0    54 51.9  male    0.206  0.0303 -0.679 0.00562  0.998 3.68e-4
##  8        0     2 21.1  male    0.208  0.0340 -0.683 0.00703  0.998 4.68e-4
##  9        1    27 11.1  fema   0.681  0.0302  0.877 0.00420  0.998 4.97e-4
## 10        1    14 30.1  fema   0.745  0.0290  0.768 0.00442  0.998 3.82e-4
## #  with 881 more rows, and 1 more variable: .std.resid <dbl>
…
